Decision Trees
…
  words %>% count(id, word) %>%  group_by(id) %>%  mutate(exists = (n>0)) %>% 
    ungroup %>% group_by(word) %>%  mutate(total = sum(n)) %>% filter(total > j) %>% 
    pivot_wider(id_cols = id, names_from = word, values_from = exists, values_fill = list(exists=0)) %>% 
    right_join(select(df,id,province)) %>% select(-id) %>% mutate(across(-province, ~replace_na(.x, F)))
}

Make Wino

wino <- wine_words(wine, 2000, F) %>% 
  filter(province %in% c("Oregon","California")) %>% 
  arrange(province)

wino

# A tibble: 6,696 × 8
   fruit flavors tannins palate black cherry red   province  
   <lgl> <lgl>   <lgl>   <lgl>  <lgl> <lgl>  <lgl> <chr>     
 1 FALSE FALSE   FALSE   TRUE   FALSE FALSE  FALSE California
 2 FALSE TRUE    FALSE   FALSE  TRUE  TRUE   FALSE California
 3 TRUE  FALSE   FALSE   FALSE  FALSE FALSE  TRUE  California
 4 FALSE TRUE    FALSE   FALSE  FALSE TRUE   FALSE California
 5 FALSE FALSE   FALSE   FALSE  FALSE TRUE   TRUE  California
 6 FALSE FALSE   FALSE   FALSE  FALSE TRUE   TRUE  California
 7 TRUE  TRUE    FALSE   TRUE   FALSE FALSE  FALSE California
 8 TRUE  FALSE   FALSE   TRUE   FALSE FALSE  FALSE California
 9 FALSE FALSE   FALSE   TRUE   TRUE  TRUE   TRUE  California
10 FALSE TRUE    FALSE   TRUE   FALSE FALSE  FALSE California
# ℹ 6,686 more rows
…
