Dimensionality Reduction
…
Word-topic probabilities

top_terms <- topics %>%
  group_by(topic) %>% top_n(10, beta) %>% ungroup() %>% arrange(topic, -beta)
top_terms

# A tibble: 40 × 3
   topic term         beta
   <int> <chr>       <dbl>
 1     1 flavors   0.0323 
 2     1 fruit     0.0230 
 3     1 tannins   0.00955
 4     1 tart      0.00932
 5     1 apple     0.00909
 6     1 black     0.00882
 7     1 red       0.00840
 8     1 mix       0.00790
 9     1 acidity   0.00761
10     1 chocolate 0.00736
# ℹ 30 more rows
…
Greatest beta differences

beta_wide <- assoc_topics %>%
  mutate(topic = paste0("topic", topic)) %>%
  pivot_wider(names_from = topic, values_from = beta) %>% 
  filter(topic1 > .001 | topic2 > .001) %>%
  mutate(log_ratio = log2(topic2 / topic1))

Greatest beta differences

beta_wide %>%
  head(30)

# A tibble: 30 × 4
   term                 topic1   topic2 log_ratio
   <chr>                 <dbl>    <dbl>     <dbl>
 1 administration 0.00116      0.000796    -0.546
 2 agency         0.000547     0.00118      1.12 
 3 agreement      0.00105      0.000707    -0.564
 4 aid            0.000125     0.00122      3.29 
 5 air            0.000571     0.00160      1.49 
 6 american       0.00204      0.00158     -0.367
 7 area           0.000142     0.00134      3.23 
 8 army           0.0000000371 0.00155     15.4  
 9 arrested       0.0000308    0.00100      5.02 
10 asked          0.000926     0.00108      0.216
# ℹ 20 more rows
…
