Naive Bayes
…
Results

We essential have words by popularity.

df %>% 
  count(word) %>%
  arrange(desc(n)) %>% 
  head(25)

# A tibble: 25 × 2
# Groups:   word [25]
   word        n
   <chr>   <int>
 1 fruit    3724
 2 cherry   3423
 3 flavors  3048
 4 black    2029
 5 palate   2025
 6 red      1976
 7 finish   1973
 8 tannins  1937
 9 acidity  1856
10 aromas   1431
# ℹ 15 more rows
…
